%YAML 1.1
%TAG !u! tag:unity3d.com,2011:
--- !u!1001 &6371938240606638697
PrefabInstance:
  m_ObjectHideFlags: 0
  serializedVersion: 2
  m_Modification:
    m_TransformParent: {fileID: 0}
    m_Modifications:
    - target: {fileID: -4216859302048453862, guid: 57f2d6bad04a7684bbecc51f75c9fe46,
        type: 3}
      propertyPath: m_LocalPosition.x
      value: -0.695284
      objectReference: {fileID: 0}
    - target: {fileID: -4216859302048453862, guid: 57f2d6bad04a7684bbecc51f75c9fe46,
        type: 3}
      propertyPath: m_LocalPosition.y
      value: 8.503629
      objectReference: {fileID: 0}
    - target: {fileID: -4216859302048453862, guid: 57f2d6bad04a7684bbecc51f75c9fe46,
        type: 3}
      propertyPath: m_LocalPosition.z
      value: -1.0921124
      objectReference: {fileID: 0}
    - target: {fileID: -4216859302048453862, guid: 57f2d6bad04a7684bbecc51f75c9fe46,
        type: 3}
      propertyPath: m_LocalRotation.x
      value: -0.045186922
      objectReference: {fileID: 0}
    - target: {fileID: -4216859302048453862, guid: 57f2d6bad04a7684bbecc51f75c9fe46,
        type: 3}
      propertyPath: m_LocalRotation.y
      value: -0.9537276
      objectReference: {fileID: 0}
    - target: {fileID: -4216859302048453862, guid: 57f2d6bad04a7684bbecc51f75c9fe46,
        type: 3}
      propertyPath: m_LocalRotation.z
      value: -0.23218898
      objectReference: {fileID: 0}
    - target: {fileID: -4216859302048453862, guid: 57f2d6bad04a7684bbecc51f75c9fe46,
        type: 3}
      propertyPath: m_LocalRotation.w
      value: 0.18560752
      objectReference: {fileID: 0}
    - target: {fileID: -4216859302048453862, guid: 57f2d6bad04a7684bbecc51f75c9fe46,
        type: 3}
      propertyPath: m_RootOrder
      value: 0
      objectReference: {fileID: 0}
    - target: {fileID: -4216859302048453862, guid: 57f2d6bad04a7684bbecc51f75c9fe46,
        type: 3}
      propertyPath: m_LocalEulerAnglesHint.x
      value: -27.365002
      objectReference: {fileID: 0}
    - target: {fileID: -4216859302048453862, guid: 57f2d6bad04a7684bbecc51f75c9fe46,
        type: 3}
      propertyPath: m_LocalEulerAnglesHint.y
      value: -22.883001
      objectReference: {fileID: 0}
    - target: {fileID: -4216859302048453862, guid: 57f2d6bad04a7684bbecc51f75c9fe46,
        type: 3}
      propertyPath: m_LocalEulerAnglesHint.z
      value: 0
      objectReference: {fileID: 0}
    - target: {fileID: -4216859302048453862, guid: 57f2d6bad04a7684bbecc51f75c9fe46,
        type: 3}
      propertyPath: m_LocalScale.x
      value: 215.17796
      objectReference: {fileID: 0}
    - target: {fileID: -4216859302048453862, guid: 57f2d6bad04a7684bbecc51f75c9fe46,
        type: 3}
      propertyPath: m_LocalScale.y
      value: 215.17801
      objectReference: {fileID: 0}
    - target: {fileID: -4216859302048453862, guid: 57f2d6bad04a7684bbecc51f75c9fe46,
        type: 3}
      propertyPath: m_LocalScale.z
      value: 215.17796
      objectReference: {fileID: 0}
    - target: {fileID: -1504981713932161579, guid: 57f2d6bad04a7684bbecc51f75c9fe46,
        type: 3}
      propertyPath: m_Materials.Array.data[0]
      value: 
      objectReference: {fileID: 2100000, guid: 1070c5c958e38f64f86cf747c8604dfc, type: 2}
    - target: {fileID: -927199367670048503, guid: 57f2d6bad04a7684bbecc51f75c9fe46,
        type: 3}
      propertyPath: m_Name
      value: Dreizack_neu
      objectReference: {fileID: 0}
    m_RemovedComponents: []
  m_SourcePrefab: {fileID: 100100000, guid: 57f2d6bad04a7684bbecc51f75c9fe46, type: 3}
